module gitlab/quanzhang/google-cloud-auth

go 1.19

require (
	github.com/spf13/cobra v1.8.0
	golang.org/x/oauth2 v0.16.0
)

require (
	cloud.google.com/go/compute v1.20.1 // indirect
	cloud.google.com/go/compute/metadata v0.2.3 // indirect
	github.com/golang/protobuf v1.5.3 // indirect
	github.com/inconshreveable/mousetrap v1.1.0 // indirect
	github.com/spf13/pflag v1.0.5 // indirect
	golang.org/x/net v0.20.0 // indirect
	google.golang.org/appengine v1.6.7 // indirect
	google.golang.org/protobuf v1.31.0 // indirect
)
